// Jest Snapshot v1, https://goo.gl/fbAQLP

exports[`Guests Render all inputs 1`] = `
<Touchable
  accessibilityComponentType="button"
  accessibilityTraits="button"
  borderlessRipple={false}
  disabled={false}
  onPress={[MockFunction]}
  rippleColor="rgba(0, 0, 0, .32)"
  style={Object {}}
>
  <Component
    style={
      Object {
        "alignItems": "center",
        "backgroundColor": "#e8edf1",
        "borderRadius": 6,
        "flexDirection": "row",
        "height": 47,
        "padding": 12,
      }
    }
  >
    <Icon
      color="#7f91a8"
      name="people"
      size={20}
      style={
        Object {
          "marginEnd": 8,
        }
      }
    />
    <ButtonTitle
      adultsCount={3}
      childrenCount={0}
    />
  </Component>
</Touchable>
`;
